<mxfile host="app.diagrams.net" modified="2023-12-13T06:50:50.398Z" agent="Mozilla/5.0 (Windows NT 10.0; Win64; x64) AppleWebKit/537.36 (KHTML, like Gecko) Chrome/120.0.0.0 Safari/537.36" etag="ykGTjYmN2hJoPEQAVeGk" version="22.1.8" type="gitlab" pages="2">
  <diagram id="InzHw2nqkBIuoBkBbDBk" name="Page-1">
    <mxGraphModel dx="1625" dy="438" grid="1" gridSize="10" guides="1" tooltips="1" connect="1" arrows="1" fold="1" page="1" pageScale="1" pageWidth="827" pageHeight="1169" math="0" shadow="0">
      <root>
        <mxCell id="0" />
        <mxCell id="1" parent="0" />
        <mxCell id="xibmXIPdIc_VB6BRGHsC-137" style="edgeStyle=orthogonalEdgeStyle;curved=1;rounded=0;orthogonalLoop=1;jettySize=auto;html=1;" parent="1" source="xibmXIPdIc_VB6BRGHsC-122" target="xibmXIPdIc_VB6BRGHsC-132" edge="1">
          <mxGeometry relative="1" as="geometry" />
        </mxCell>
        <mxCell id="xibmXIPdIc_VB6BRGHsC-122" value="" style="rounded=0;whiteSpace=wrap;html=1;dashed=1;fillColor=#ffe6cc;strokeColor=#d79b00;" parent="1" vertex="1">
          <mxGeometry x="-74" y="2350" width="240" height="180" as="geometry" />
        </mxCell>
        <mxCell id="xibmXIPdIc_VB6BRGHsC-138" style="edgeStyle=orthogonalEdgeStyle;curved=1;rounded=0;orthogonalLoop=1;jettySize=auto;html=1;entryX=0;entryY=0.5;entryDx=0;entryDy=0;" parent="1" source="xibmXIPdIc_VB6BRGHsC-120" target="xibmXIPdIc_VB6BRGHsC-132" edge="1">
          <mxGeometry relative="1" as="geometry" />
        </mxCell>
        <mxCell id="xibmXIPdIc_VB6BRGHsC-120" value="" style="rounded=0;whiteSpace=wrap;html=1;dashed=1;" parent="1" vertex="1">
          <mxGeometry x="-77" y="2240" width="240" height="80" as="geometry" />
        </mxCell>
        <mxCell id="xibmXIPdIc_VB6BRGHsC-118" value="" style="rounded=0;whiteSpace=wrap;html=1;dashed=1;" parent="1" vertex="1">
          <mxGeometry x="-76" y="2130" width="240" height="80" as="geometry" />
        </mxCell>
        <mxCell id="xibmXIPdIc_VB6BRGHsC-127" style="edgeStyle=orthogonalEdgeStyle;curved=1;rounded=0;orthogonalLoop=1;jettySize=auto;html=1;" parent="1" source="xibmXIPdIc_VB6BRGHsC-116" target="xibmXIPdIc_VB6BRGHsC-125" edge="1">
          <mxGeometry relative="1" as="geometry" />
        </mxCell>
        <mxCell id="xibmXIPdIc_VB6BRGHsC-116" value="" style="rounded=0;whiteSpace=wrap;html=1;dashed=1;fillColor=#ffe6cc;strokeColor=#d79b00;" parent="1" vertex="1">
          <mxGeometry x="-293" y="2590" width="670" height="110" as="geometry" />
        </mxCell>
        <mxCell id="xibmXIPdIc_VB6BRGHsC-72" value="" style="rounded=0;whiteSpace=wrap;html=1;dashed=1;" parent="1" vertex="1">
          <mxGeometry x="400" y="381" width="780" height="159" as="geometry" />
        </mxCell>
        <mxCell id="xibmXIPdIc_VB6BRGHsC-68" style="edgeStyle=entityRelationEdgeStyle;rounded=0;orthogonalLoop=1;jettySize=auto;html=1;" parent="1" source="xibmXIPdIc_VB6BRGHsC-62" target="xibmXIPdIc_VB6BRGHsC-65" edge="1">
          <mxGeometry relative="1" as="geometry" />
        </mxCell>
        <mxCell id="xibmXIPdIc_VB6BRGHsC-62" value="" style="rounded=0;whiteSpace=wrap;html=1;dashed=1;fillColor=#fff2cc;strokeColor=#d6b656;" parent="1" vertex="1">
          <mxGeometry x="380" y="1020" width="250" height="470" as="geometry" />
        </mxCell>
        <mxCell id="xibmXIPdIc_VB6BRGHsC-34" value="" style="rounded=0;whiteSpace=wrap;html=1;dashed=1;" parent="1" vertex="1">
          <mxGeometry x="-260" y="220" width="420" height="530" as="geometry" />
        </mxCell>
        <mxCell id="xibmXIPdIc_VB6BRGHsC-2" value="&lt;span style=&quot;&quot;&gt;Mock CDR output data&lt;br&gt;(JSON file)&lt;/span&gt;" style="shape=document;whiteSpace=wrap;html=1;boundedLbl=1;" parent="1" vertex="1">
          <mxGeometry x="200" y="220" width="160" height="100" as="geometry" />
        </mxCell>
        <mxCell id="xibmXIPdIc_VB6BRGHsC-33" style="edgeStyle=orthogonalEdgeStyle;rounded=0;orthogonalLoop=1;jettySize=auto;html=1;entryX=0.493;entryY=0.84;entryDx=0;entryDy=0;entryPerimeter=0;" parent="1" source="xibmXIPdIc_VB6BRGHsC-3" target="xibmXIPdIc_VB6BRGHsC-4" edge="1">
          <mxGeometry relative="1" as="geometry" />
        </mxCell>
        <mxCell id="xibmXIPdIc_VB6BRGHsC-37" style="edgeStyle=orthogonalEdgeStyle;rounded=0;orthogonalLoop=1;jettySize=auto;html=1;" parent="1" source="xibmXIPdIc_VB6BRGHsC-3" target="xibmXIPdIc_VB6BRGHsC-11" edge="1">
          <mxGeometry relative="1" as="geometry" />
        </mxCell>
        <mxCell id="xibmXIPdIc_VB6BRGHsC-3" value="2.Load Excel data into dataSet table" style="rounded=0;whiteSpace=wrap;html=1;" parent="1" vertex="1">
          <mxGeometry x="-34" y="441" width="120" height="80" as="geometry" />
        </mxCell>
        <mxCell id="xibmXIPdIc_VB6BRGHsC-4" value="&lt;div style=&quot;text-align: left;&quot;&gt;&lt;span style=&quot;background-color: initial;&quot;&gt;1.eHR Dispensng Record Dataset (Excel)&lt;/span&gt;&lt;/div&gt;&lt;div style=&quot;text-align: left;&quot;&gt;&lt;span style=&quot;background-color: initial;&quot;&gt;2.eHR Prescribing Record Dataset (Excel)&lt;/span&gt;&lt;/div&gt;" style="shape=document;whiteSpace=wrap;html=1;boundedLbl=1;" parent="1" vertex="1">
          <mxGeometry x="-48" y="231" width="150" height="100" as="geometry" />
        </mxCell>
        <mxCell id="xibmXIPdIc_VB6BRGHsC-28" style="edgeStyle=orthogonalEdgeStyle;rounded=0;orthogonalLoop=1;jettySize=auto;html=1;" parent="1" source="xibmXIPdIc_VB6BRGHsC-7" target="xibmXIPdIc_VB6BRGHsC-26" edge="1">
          <mxGeometry relative="1" as="geometry" />
        </mxCell>
        <mxCell id="xibmXIPdIc_VB6BRGHsC-41" value="entityId" style="edgeLabel;html=1;align=center;verticalAlign=middle;resizable=0;points=[];" parent="xibmXIPdIc_VB6BRGHsC-28" vertex="1" connectable="0">
          <mxGeometry x="-0.2421" relative="1" as="geometry">
            <mxPoint y="-10" as="offset" />
          </mxGeometry>
        </mxCell>
        <mxCell id="xibmXIPdIc_VB6BRGHsC-32" style="edgeStyle=orthogonalEdgeStyle;rounded=0;orthogonalLoop=1;jettySize=auto;html=1;entryX=0.488;entryY=0.88;entryDx=0;entryDy=0;entryPerimeter=0;" parent="1" source="xibmXIPdIc_VB6BRGHsC-7" target="xibmXIPdIc_VB6BRGHsC-2" edge="1">
          <mxGeometry relative="1" as="geometry" />
        </mxCell>
        <mxCell id="xibmXIPdIc_VB6BRGHsC-7" value="1.Parse CDR output data and find entityId" style="rounded=0;whiteSpace=wrap;html=1;" parent="1" vertex="1">
          <mxGeometry x="200" y="431" width="155" height="80" as="geometry" />
        </mxCell>
        <mxCell id="xibmXIPdIc_VB6BRGHsC-11" value="DB&lt;br&gt;&lt;div style=&quot;text-align: left;&quot;&gt;&lt;span style=&quot;background-color: initial;&quot;&gt;1.Mapping Table&lt;/span&gt;&lt;/div&gt;&lt;div style=&quot;text-align: left;&quot;&gt;&lt;span style=&quot;background-color: initial;&quot;&gt;2.DataSet Table&lt;/span&gt;&lt;/div&gt;" style="shape=cylinder3;whiteSpace=wrap;html=1;boundedLbl=1;backgroundOutline=1;size=15;" parent="1" vertex="1">
          <mxGeometry x="-150" y="610" width="180" height="120" as="geometry" />
        </mxCell>
        <mxCell id="xibmXIPdIc_VB6BRGHsC-13" value="Excel Data insert to DataSet Table" style="text;html=1;strokeColor=none;fillColor=none;align=center;verticalAlign=middle;whiteSpace=wrap;rounded=0;" parent="1" vertex="1">
          <mxGeometry x="30" y="531" width="115" height="30" as="geometry" />
        </mxCell>
        <mxCell id="xibmXIPdIc_VB6BRGHsC-16" value="DDS for eHR Drug Record Download v1.0" style="shape=document;whiteSpace=wrap;html=1;boundedLbl=1;" parent="1" vertex="1">
          <mxGeometry x="-240" y="230" width="160" height="100" as="geometry" />
        </mxCell>
        <mxCell id="xibmXIPdIc_VB6BRGHsC-19" style="edgeStyle=orthogonalEdgeStyle;rounded=0;orthogonalLoop=1;jettySize=auto;html=1;entryX=0.469;entryY=0.91;entryDx=0;entryDy=0;entryPerimeter=0;" parent="1" source="xibmXIPdIc_VB6BRGHsC-17" target="xibmXIPdIc_VB6BRGHsC-16" edge="1">
          <mxGeometry relative="1" as="geometry" />
        </mxCell>
        <mxCell id="xibmXIPdIc_VB6BRGHsC-38" style="edgeStyle=orthogonalEdgeStyle;rounded=0;orthogonalLoop=1;jettySize=auto;html=1;entryX=0.5;entryY=0;entryDx=0;entryDy=0;entryPerimeter=0;" parent="1" source="xibmXIPdIc_VB6BRGHsC-17" target="xibmXIPdIc_VB6BRGHsC-11" edge="1">
          <mxGeometry relative="1" as="geometry" />
        </mxCell>
        <mxCell id="xibmXIPdIc_VB6BRGHsC-17" value="1.Insert data into the mapping table" style="rounded=0;whiteSpace=wrap;html=1;" parent="1" vertex="1">
          <mxGeometry x="-240" y="441" width="150" height="80" as="geometry" />
        </mxCell>
        <mxCell id="xibmXIPdIc_VB6BRGHsC-21" value="Mapping data insert to Mapping Table" style="text;html=1;strokeColor=none;fillColor=none;align=center;verticalAlign=middle;whiteSpace=wrap;rounded=0;" parent="1" vertex="1">
          <mxGeometry x="-260" y="531" width="245" height="30" as="geometry" />
        </mxCell>
        <mxCell id="xibmXIPdIc_VB6BRGHsC-40" style="edgeStyle=orthogonalEdgeStyle;rounded=0;orthogonalLoop=1;jettySize=auto;html=1;" parent="1" source="xibmXIPdIc_VB6BRGHsC-26" target="xibmXIPdIc_VB6BRGHsC-39" edge="1">
          <mxGeometry relative="1" as="geometry" />
        </mxCell>
        <mxCell id="xibmXIPdIc_VB6BRGHsC-26" value="2.Find Entity Name from dataSet table" style="rounded=0;whiteSpace=wrap;html=1;" parent="1" vertex="1">
          <mxGeometry x="430" y="431" width="120" height="80" as="geometry" />
        </mxCell>
        <mxCell id="xibmXIPdIc_VB6BRGHsC-51" style="edgeStyle=entityRelationEdgeStyle;rounded=0;orthogonalLoop=1;jettySize=auto;html=1;entryX=0;entryY=0.5;entryDx=0;entryDy=0;" parent="1" source="xibmXIPdIc_VB6BRGHsC-27" target="xibmXIPdIc_VB6BRGHsC-47" edge="1">
          <mxGeometry relative="1" as="geometry" />
        </mxCell>
        <mxCell id="xibmXIPdIc_VB6BRGHsC-27" value="5.Set the value to the FHIR field" style="rounded=0;whiteSpace=wrap;html=1;fillColor=#ffe6cc;strokeColor=#d79b00;" parent="1" vertex="1">
          <mxGeometry x="1010" y="431" width="120" height="80" as="geometry" />
        </mxCell>
        <mxCell id="xibmXIPdIc_VB6BRGHsC-29" value="7.FHIR resource Object conversion JSON output" style="rounded=0;whiteSpace=wrap;html=1;" parent="1" vertex="1">
          <mxGeometry x="1440" y="431" width="120" height="80" as="geometry" />
        </mxCell>
        <mxCell id="xibmXIPdIc_VB6BRGHsC-36" value="Prepare initialization data" style="text;html=1;strokeColor=none;fillColor=none;align=center;verticalAlign=middle;whiteSpace=wrap;rounded=0;dashed=1;" parent="1" vertex="1">
          <mxGeometry x="-97.5" y="190" width="155" height="30" as="geometry" />
        </mxCell>
        <mxCell id="xibmXIPdIc_VB6BRGHsC-45" style="edgeStyle=orthogonalEdgeStyle;rounded=0;orthogonalLoop=1;jettySize=auto;html=1;entryX=0;entryY=0.5;entryDx=0;entryDy=0;" parent="1" source="xibmXIPdIc_VB6BRGHsC-39" target="xibmXIPdIc_VB6BRGHsC-44" edge="1">
          <mxGeometry relative="1" as="geometry" />
        </mxCell>
        <mxCell id="xibmXIPdIc_VB6BRGHsC-39" value="3.Find FHIR field and FHIR resourceType from mapping Table" style="rounded=0;whiteSpace=wrap;html=1;" parent="1" vertex="1">
          <mxGeometry x="637" y="431" width="120" height="80" as="geometry" />
        </mxCell>
        <mxCell id="xibmXIPdIc_VB6BRGHsC-42" value="Entity Name" style="text;html=1;align=center;verticalAlign=middle;resizable=0;points=[];autosize=1;strokeColor=none;fillColor=none;" parent="1" vertex="1">
          <mxGeometry x="550" y="451" width="80" height="20" as="geometry" />
        </mxCell>
        <mxCell id="xibmXIPdIc_VB6BRGHsC-52" style="edgeStyle=entityRelationEdgeStyle;rounded=0;orthogonalLoop=1;jettySize=auto;html=1;entryX=0;entryY=0.5;entryDx=0;entryDy=0;" parent="1" source="xibmXIPdIc_VB6BRGHsC-44" target="xibmXIPdIc_VB6BRGHsC-27" edge="1">
          <mxGeometry relative="1" as="geometry" />
        </mxCell>
        <mxCell id="xibmXIPdIc_VB6BRGHsC-44" value="4.Create FHIR resource Object&lt;br&gt;(Java Object)" style="rounded=0;whiteSpace=wrap;html=1;fillColor=#ffe6cc;strokeColor=#d79b00;" parent="1" vertex="1">
          <mxGeometry x="800" y="431" width="120" height="80" as="geometry" />
        </mxCell>
        <mxCell id="xibmXIPdIc_VB6BRGHsC-49" style="edgeStyle=orthogonalEdgeStyle;rounded=0;orthogonalLoop=1;jettySize=auto;html=1;" parent="1" source="xibmXIPdIc_VB6BRGHsC-47" target="xibmXIPdIc_VB6BRGHsC-29" edge="1">
          <mxGeometry relative="1" as="geometry" />
        </mxCell>
        <mxCell id="xibmXIPdIc_VB6BRGHsC-47" value="6.Validating FHIR resource Object" style="rounded=0;whiteSpace=wrap;html=1;fillColor=#ffe6cc;strokeColor=#d79b00;" parent="1" vertex="1">
          <mxGeometry x="1210" y="431" width="120" height="80" as="geometry" />
        </mxCell>
        <mxCell id="xibmXIPdIc_VB6BRGHsC-53" value="HAPI library" style="text;html=1;strokeColor=none;fillColor=none;align=center;verticalAlign=middle;whiteSpace=wrap;rounded=0;dashed=1;" parent="1" vertex="1">
          <mxGeometry x="805" y="401" width="110" height="30" as="geometry" />
        </mxCell>
        <mxCell id="xibmXIPdIc_VB6BRGHsC-57" style="edgeStyle=entityRelationEdgeStyle;rounded=0;orthogonalLoop=1;jettySize=auto;html=1;entryX=1;entryY=0.5;entryDx=0;entryDy=0;" parent="1" source="xibmXIPdIc_VB6BRGHsC-54" target="xibmXIPdIc_VB6BRGHsC-56" edge="1">
          <mxGeometry relative="1" as="geometry" />
        </mxCell>
        <mxCell id="xibmXIPdIc_VB6BRGHsC-64" style="edgeStyle=entityRelationEdgeStyle;rounded=0;orthogonalLoop=1;jettySize=auto;html=1;entryX=0;entryY=0.5;entryDx=0;entryDy=0;" parent="1" source="xibmXIPdIc_VB6BRGHsC-54" target="xibmXIPdIc_VB6BRGHsC-62" edge="1">
          <mxGeometry relative="1" as="geometry" />
        </mxCell>
        <mxCell id="xibmXIPdIc_VB6BRGHsC-54" value="Mapping-engine&lt;br&gt;(适配各种resourceType and find resource processor )" style="rounded=0;whiteSpace=wrap;html=1;fillColor=#d5e8d4;strokeColor=#82b366;" parent="1" vertex="1">
          <mxGeometry x="30" y="1190" width="250" height="130" as="geometry" />
        </mxCell>
        <mxCell id="xibmXIPdIc_VB6BRGHsC-78" style="edgeStyle=orthogonalEdgeStyle;curved=1;rounded=0;orthogonalLoop=1;jettySize=auto;html=1;" parent="1" source="xibmXIPdIc_VB6BRGHsC-56" target="xibmXIPdIc_VB6BRGHsC-76" edge="1">
          <mxGeometry relative="1" as="geometry">
            <Array as="points">
              <mxPoint x="-160" y="1440" />
            </Array>
          </mxGeometry>
        </mxCell>
        <mxCell id="xibmXIPdIc_VB6BRGHsC-56" value="&lt;span style=&quot;&quot;&gt;CDR output data&lt;br&gt;(JSON file)&lt;/span&gt;" style="shape=document;whiteSpace=wrap;html=1;boundedLbl=1;" parent="1" vertex="1">
          <mxGeometry x="-260" y="1205" width="160" height="100" as="geometry" />
        </mxCell>
        <mxCell id="xibmXIPdIc_VB6BRGHsC-58" value="MedicationRequest" style="rounded=0;whiteSpace=wrap;html=1;" parent="1" vertex="1">
          <mxGeometry x="414" y="1220" width="176" height="70" as="geometry" />
        </mxCell>
        <mxCell id="xibmXIPdIc_VB6BRGHsC-59" value="Patient" style="rounded=0;whiteSpace=wrap;html=1;" parent="1" vertex="1">
          <mxGeometry x="417" y="1040" width="176" height="70" as="geometry" />
        </mxCell>
        <mxCell id="xibmXIPdIc_VB6BRGHsC-60" value="Practition&lt;span style=&quot;color: rgba(0, 0, 0, 0); font-family: monospace; font-size: 0px; text-align: start;&quot;&gt;%3CmxGraphModel%3E%3Croot%3E%3CmxCell%20id%3D%220%22%2F%3E%3CmxCell%20id%3D%221%22%20parent%3D%220%22%2F%3E%3CmxCell%20id%3D%222%22%20value%3D%22Patient%22%20style%3D%22rounded%3D0%3BwhiteSpace%3Dwrap%3Bhtml%3D1%3B%22%20vertex%3D%221%22%20parent%3D%221%22%3E%3CmxGeometry%20x%3D%22414%22%20y%3D%22940%22%20width%3D%22176%22%20height%3D%2270%22%20as%3D%22geometry%22%2F%3E%3C%2FmxCell%3E%3C%2Froot%3E%3C%2FmxGraphModel%3E&lt;/span&gt;erRole" style="rounded=0;whiteSpace=wrap;html=1;" parent="1" vertex="1">
          <mxGeometry x="414" y="1130" width="176" height="70" as="geometry" />
        </mxCell>
        <mxCell id="xibmXIPdIc_VB6BRGHsC-61" value="MedicationDIsponse" style="rounded=0;whiteSpace=wrap;html=1;" parent="1" vertex="1">
          <mxGeometry x="414" y="1310" width="176" height="70" as="geometry" />
        </mxCell>
        <mxCell id="xibmXIPdIc_VB6BRGHsC-63" value="Business Logic Processor" style="text;html=1;strokeColor=none;fillColor=none;align=center;verticalAlign=middle;whiteSpace=wrap;rounded=0;dashed=1;" parent="1" vertex="1">
          <mxGeometry x="417" y="990" width="150" height="30" as="geometry" />
        </mxCell>
        <mxCell id="xibmXIPdIc_VB6BRGHsC-69" style="edgeStyle=entityRelationEdgeStyle;rounded=0;orthogonalLoop=1;jettySize=auto;html=1;entryX=0;entryY=0.5;entryDx=0;entryDy=0;" parent="1" source="xibmXIPdIc_VB6BRGHsC-65" target="xibmXIPdIc_VB6BRGHsC-67" edge="1">
          <mxGeometry relative="1" as="geometry" />
        </mxCell>
        <mxCell id="xibmXIPdIc_VB6BRGHsC-65" value="Validation engine&lt;br&gt;(R4/...)" style="rounded=0;whiteSpace=wrap;html=1;fillColor=#d5e8d4;strokeColor=#82b366;" parent="1" vertex="1">
          <mxGeometry x="710" y="1210" width="170" height="90" as="geometry" />
        </mxCell>
        <mxCell id="xibmXIPdIc_VB6BRGHsC-67" value="&lt;span style=&quot;&quot;&gt;Output engine&lt;br&gt;（JSON/XML/...）&lt;br&gt;&lt;/span&gt;" style="rounded=0;whiteSpace=wrap;html=1;fillColor=#d5e8d4;strokeColor=#82b366;" parent="1" vertex="1">
          <mxGeometry x="930" y="1210" width="155" height="90" as="geometry" />
        </mxCell>
        <mxCell id="xibmXIPdIc_VB6BRGHsC-70" value="..." style="rounded=0;whiteSpace=wrap;html=1;" parent="1" vertex="1">
          <mxGeometry x="414" y="1390" width="176" height="70" as="geometry" />
        </mxCell>
        <mxCell id="xibmXIPdIc_VB6BRGHsC-73" value="Mapping Engine" style="text;html=1;strokeColor=none;fillColor=none;align=center;verticalAlign=middle;whiteSpace=wrap;rounded=0;dashed=1;" parent="1" vertex="1">
          <mxGeometry x="697" y="351" width="153" height="30" as="geometry" />
        </mxCell>
        <mxCell id="xibmXIPdIc_VB6BRGHsC-86" value="" style="edgeStyle=orthogonalEdgeStyle;curved=1;rounded=0;orthogonalLoop=1;jettySize=auto;html=1;" parent="1" source="xibmXIPdIc_VB6BRGHsC-74" target="xibmXIPdIc_VB6BRGHsC-85" edge="1">
          <mxGeometry relative="1" as="geometry" />
        </mxCell>
        <mxCell id="xibmXIPdIc_VB6BRGHsC-93" style="edgeStyle=orthogonalEdgeStyle;curved=1;rounded=0;orthogonalLoop=1;jettySize=auto;html=1;" parent="1" source="xibmXIPdIc_VB6BRGHsC-74" target="xibmXIPdIc_VB6BRGHsC-92" edge="1">
          <mxGeometry relative="1" as="geometry" />
        </mxCell>
        <mxCell id="xibmXIPdIc_VB6BRGHsC-74" value="engine&lt;br&gt;(&lt;br&gt;entityId&lt;br&gt;value&lt;br&gt;format&lt;br&gt;dataType&lt;br&gt;)" style="rounded=0;whiteSpace=wrap;html=1;" parent="1" vertex="1">
          <mxGeometry x="72" y="1560" width="134" height="100" as="geometry" />
        </mxCell>
        <mxCell id="xibmXIPdIc_VB6BRGHsC-103" style="edgeStyle=orthogonalEdgeStyle;curved=1;rounded=0;orthogonalLoop=1;jettySize=auto;html=1;" parent="1" source="xibmXIPdIc_VB6BRGHsC-75" edge="1">
          <mxGeometry relative="1" as="geometry">
            <mxPoint x="360" y="1840" as="targetPoint" />
          </mxGeometry>
        </mxCell>
        <mxCell id="xibmXIPdIc_VB6BRGHsC-75" value="processor" style="rounded=0;whiteSpace=wrap;html=1;" parent="1" vertex="1">
          <mxGeometry x="450" y="1810" width="115" height="60" as="geometry" />
        </mxCell>
        <mxCell id="xibmXIPdIc_VB6BRGHsC-95" style="edgeStyle=orthogonalEdgeStyle;curved=1;rounded=0;orthogonalLoop=1;jettySize=auto;html=1;entryX=0.5;entryY=0;entryDx=0;entryDy=0;" parent="1" source="xibmXIPdIc_VB6BRGHsC-76" target="xibmXIPdIc_VB6BRGHsC-74" edge="1">
          <mxGeometry relative="1" as="geometry" />
        </mxCell>
        <mxCell id="xibmXIPdIc_VB6BRGHsC-76" value="Cdrcontroller&lt;br&gt;RequestBody" style="rounded=0;whiteSpace=wrap;html=1;" parent="1" vertex="1">
          <mxGeometry x="86" y="1410" width="120" height="60" as="geometry" />
        </mxCell>
        <mxCell id="xibmXIPdIc_VB6BRGHsC-80" value="List&amp;lt;MappingDataSet2FhirFieldInfo&amp;gt;" style="text;html=1;strokeColor=none;fillColor=none;align=center;verticalAlign=middle;whiteSpace=wrap;rounded=0;" parent="1" vertex="1">
          <mxGeometry x="685" y="1724" width="230" height="30" as="geometry" />
        </mxCell>
        <mxCell id="xibmXIPdIc_VB6BRGHsC-89" value="" style="edgeStyle=orthogonalEdgeStyle;curved=1;rounded=0;orthogonalLoop=1;jettySize=auto;html=1;" parent="1" source="xibmXIPdIc_VB6BRGHsC-85" target="xibmXIPdIc_VB6BRGHsC-88" edge="1">
          <mxGeometry relative="1" as="geometry" />
        </mxCell>
        <mxCell id="xibmXIPdIc_VB6BRGHsC-85" value="parseCdrData&lt;br&gt;" style="rounded=0;whiteSpace=wrap;html=1;" parent="1" vertex="1">
          <mxGeometry x="300" y="1485" width="134" height="90" as="geometry" />
        </mxCell>
        <mxCell id="xibmXIPdIc_VB6BRGHsC-90" style="edgeStyle=orthogonalEdgeStyle;curved=1;rounded=0;orthogonalLoop=1;jettySize=auto;html=1;entryX=1;entryY=0.5;entryDx=0;entryDy=0;" parent="1" source="xibmXIPdIc_VB6BRGHsC-88" target="xibmXIPdIc_VB6BRGHsC-75" edge="1">
          <mxGeometry relative="1" as="geometry">
            <Array as="points">
              <mxPoint x="620" y="1724" />
            </Array>
          </mxGeometry>
        </mxCell>
        <mxCell id="xibmXIPdIc_VB6BRGHsC-88" value="&lt;span style=&quot;&quot;&gt;core&lt;/span&gt;" style="whiteSpace=wrap;html=1;rounded=0;" parent="1" vertex="1">
          <mxGeometry x="660" y="1545" width="120" height="60" as="geometry" />
        </mxCell>
        <mxCell id="xibmXIPdIc_VB6BRGHsC-91" value="MappingResourceType" style="text;html=1;strokeColor=none;fillColor=none;align=center;verticalAlign=middle;whiteSpace=wrap;rounded=0;" parent="1" vertex="1">
          <mxGeometry x="430" y="1545" width="230" height="30" as="geometry" />
        </mxCell>
        <mxCell id="xibmXIPdIc_VB6BRGHsC-94" style="edgeStyle=orthogonalEdgeStyle;curved=1;rounded=0;orthogonalLoop=1;jettySize=auto;html=1;" parent="1" source="xibmXIPdIc_VB6BRGHsC-92" target="xibmXIPdIc_VB6BRGHsC-88" edge="1">
          <mxGeometry relative="1" as="geometry" />
        </mxCell>
        <mxCell id="xibmXIPdIc_VB6BRGHsC-92" value="parseXxxData" style="rounded=0;whiteSpace=wrap;html=1;" parent="1" vertex="1">
          <mxGeometry x="310" y="1590" width="134" height="90" as="geometry" />
        </mxCell>
        <mxCell id="xibmXIPdIc_VB6BRGHsC-100" style="edgeStyle=orthogonalEdgeStyle;curved=1;rounded=0;orthogonalLoop=1;jettySize=auto;html=1;" parent="1" source="xibmXIPdIc_VB6BRGHsC-96" edge="1">
          <mxGeometry relative="1" as="geometry">
            <mxPoint x="140" y="1560" as="targetPoint" />
          </mxGeometry>
        </mxCell>
        <mxCell id="xibmXIPdIc_VB6BRGHsC-96" value="Xxxcontroller&lt;br&gt;RequestBody" style="rounded=0;whiteSpace=wrap;html=1;" parent="1" vertex="1">
          <mxGeometry x="-90" y="1490" width="120" height="60" as="geometry" />
        </mxCell>
        <mxCell id="xibmXIPdIc_VB6BRGHsC-101" style="edgeStyle=orthogonalEdgeStyle;curved=1;rounded=0;orthogonalLoop=1;jettySize=auto;html=1;entryX=0;entryY=0.5;entryDx=0;entryDy=0;" parent="1" source="xibmXIPdIc_VB6BRGHsC-98" target="xibmXIPdIc_VB6BRGHsC-96" edge="1">
          <mxGeometry relative="1" as="geometry" />
        </mxCell>
        <mxCell id="xibmXIPdIc_VB6BRGHsC-98" value="&lt;span style=&quot;&quot;&gt;Xxx output data&lt;br&gt;(JSON file)&lt;/span&gt;" style="shape=document;whiteSpace=wrap;html=1;boundedLbl=1;" parent="1" vertex="1">
          <mxGeometry x="-330" y="1360" width="160" height="110" as="geometry" />
        </mxCell>
        <mxCell id="xibmXIPdIc_VB6BRGHsC-102" value="数据结构****" style="text;html=1;strokeColor=none;fillColor=none;align=center;verticalAlign=middle;whiteSpace=wrap;rounded=0;" parent="1" vertex="1">
          <mxGeometry x="850" y="1530" width="100" height="30" as="geometry" />
        </mxCell>
        <mxCell id="xibmXIPdIc_VB6BRGHsC-104" value="build Bundle" style="rounded=0;whiteSpace=wrap;html=1;" parent="1" vertex="1">
          <mxGeometry x="245" y="1810" width="115" height="60" as="geometry" />
        </mxCell>
        <mxCell id="xibmXIPdIc_VB6BRGHsC-112" style="edgeStyle=orthogonalEdgeStyle;curved=1;rounded=0;orthogonalLoop=1;jettySize=auto;html=1;entryX=0.5;entryY=0;entryDx=0;entryDy=0;" parent="1" source="xibmXIPdIc_VB6BRGHsC-105" target="xibmXIPdIc_VB6BRGHsC-106" edge="1">
          <mxGeometry relative="1" as="geometry" />
        </mxCell>
        <mxCell id="xibmXIPdIc_VB6BRGHsC-105" value="CDRController" style="rounded=0;whiteSpace=wrap;html=1;" parent="1" vertex="1">
          <mxGeometry x="-18" y="2137" width="120" height="60" as="geometry" />
        </mxCell>
        <mxCell id="xibmXIPdIc_VB6BRGHsC-114" style="edgeStyle=orthogonalEdgeStyle;curved=1;rounded=0;orthogonalLoop=1;jettySize=auto;html=1;entryX=0.5;entryY=0;entryDx=0;entryDy=0;" parent="1" source="xibmXIPdIc_VB6BRGHsC-106" target="xibmXIPdIc_VB6BRGHsC-107" edge="1">
          <mxGeometry relative="1" as="geometry" />
        </mxCell>
        <mxCell id="xibmXIPdIc_VB6BRGHsC-106" value="CDRService" style="rounded=0;whiteSpace=wrap;html=1;" parent="1" vertex="1">
          <mxGeometry x="-18" y="2250" width="120" height="60" as="geometry" />
        </mxCell>
        <mxCell id="xibmXIPdIc_VB6BRGHsC-115" style="edgeStyle=orthogonalEdgeStyle;curved=1;rounded=0;orthogonalLoop=1;jettySize=auto;html=1;entryX=0.5;entryY=0;entryDx=0;entryDy=0;" parent="1" source="xibmXIPdIc_VB6BRGHsC-107" target="xibmXIPdIc_VB6BRGHsC-113" edge="1">
          <mxGeometry relative="1" as="geometry" />
        </mxCell>
        <mxCell id="xibmXIPdIc_VB6BRGHsC-107" value="MappingEngine" style="rounded=0;whiteSpace=wrap;html=1;" parent="1" vertex="1">
          <mxGeometry x="-18" y="2360" width="120" height="60" as="geometry" />
        </mxCell>
        <mxCell id="xibmXIPdIc_VB6BRGHsC-109" value="MedicationRequestProcessor" style="rounded=0;whiteSpace=wrap;html=1;" parent="1" vertex="1">
          <mxGeometry x="-283" y="2620" width="180" height="60" as="geometry" />
        </mxCell>
        <mxCell id="xibmXIPdIc_VB6BRGHsC-110" value="MedicationDispenseProcessor" style="rounded=0;whiteSpace=wrap;html=1;" parent="1" vertex="1">
          <mxGeometry x="-40.5" y="2620" width="180" height="60" as="geometry" />
        </mxCell>
        <mxCell id="xibmXIPdIc_VB6BRGHsC-111" value="XxxProcessor" style="rounded=0;whiteSpace=wrap;html=1;" parent="1" vertex="1">
          <mxGeometry x="184.5" y="2620" width="180" height="60" as="geometry" />
        </mxCell>
        <mxCell id="xibmXIPdIc_VB6BRGHsC-117" style="edgeStyle=orthogonalEdgeStyle;curved=1;rounded=0;orthogonalLoop=1;jettySize=auto;html=1;" parent="1" source="xibmXIPdIc_VB6BRGHsC-113" target="xibmXIPdIc_VB6BRGHsC-116" edge="1">
          <mxGeometry relative="1" as="geometry" />
        </mxCell>
        <mxCell id="xibmXIPdIc_VB6BRGHsC-113" value="invoke Call" style="rounded=0;whiteSpace=wrap;html=1;" parent="1" vertex="1">
          <mxGeometry x="-18" y="2460" width="120" height="60" as="geometry" />
        </mxCell>
        <mxCell id="xibmXIPdIc_VB6BRGHsC-119" value="controller" style="text;html=1;strokeColor=none;fillColor=none;align=center;verticalAlign=middle;whiteSpace=wrap;rounded=0;dashed=1;" parent="1" vertex="1">
          <mxGeometry x="-136" y="2150" width="60" height="30" as="geometry" />
        </mxCell>
        <mxCell id="xibmXIPdIc_VB6BRGHsC-121" value="service" style="text;html=1;strokeColor=none;fillColor=none;align=center;verticalAlign=middle;whiteSpace=wrap;rounded=0;dashed=1;" parent="1" vertex="1">
          <mxGeometry x="-142" y="2260" width="60" height="30" as="geometry" />
        </mxCell>
        <mxCell id="xibmXIPdIc_VB6BRGHsC-123" value="mapping" style="text;html=1;strokeColor=none;fillColor=none;align=center;verticalAlign=middle;whiteSpace=wrap;rounded=0;dashed=1;" parent="1" vertex="1">
          <mxGeometry x="-138" y="2430" width="60" height="30" as="geometry" />
        </mxCell>
        <mxCell id="xibmXIPdIc_VB6BRGHsC-124" value="process" style="text;html=1;strokeColor=none;fillColor=none;align=center;verticalAlign=middle;whiteSpace=wrap;rounded=0;dashed=1;" parent="1" vertex="1">
          <mxGeometry x="-353" y="2630" width="60" height="30" as="geometry" />
        </mxCell>
        <mxCell id="xibmXIPdIc_VB6BRGHsC-125" value="" style="rounded=0;whiteSpace=wrap;html=1;dashed=1;" parent="1" vertex="1">
          <mxGeometry x="-103" y="2760" width="290" height="100" as="geometry" />
        </mxCell>
        <mxCell id="xibmXIPdIc_VB6BRGHsC-126" value="BuildBundle" style="rounded=0;whiteSpace=wrap;html=1;" parent="1" vertex="1">
          <mxGeometry x="-48" y="2780" width="180" height="60" as="geometry" />
        </mxCell>
        <mxCell id="xibmXIPdIc_VB6BRGHsC-128" value="build" style="text;html=1;strokeColor=none;fillColor=none;align=center;verticalAlign=middle;whiteSpace=wrap;rounded=0;dashed=1;" parent="1" vertex="1">
          <mxGeometry x="-163" y="2795" width="60" height="30" as="geometry" />
        </mxCell>
        <mxCell id="xibmXIPdIc_VB6BRGHsC-132" value="" style="rounded=0;whiteSpace=wrap;html=1;dashed=1;" parent="1" vertex="1">
          <mxGeometry x="380" y="2282" width="287" height="180" as="geometry" />
        </mxCell>
        <mxCell id="xibmXIPdIc_VB6BRGHsC-133" value="MapingFieldRepository" style="rounded=0;whiteSpace=wrap;html=1;" parent="1" vertex="1">
          <mxGeometry x="447.75" y="2297" width="150" height="60" as="geometry" />
        </mxCell>
        <mxCell id="xibmXIPdIc_VB6BRGHsC-134" value="DataSetRepository" style="rounded=0;whiteSpace=wrap;html=1;" parent="1" vertex="1">
          <mxGeometry x="449.25" y="2372" width="150" height="60" as="geometry" />
        </mxCell>
        <mxCell id="xibmXIPdIc_VB6BRGHsC-135" value="repository" style="text;html=1;strokeColor=none;fillColor=none;align=center;verticalAlign=middle;whiteSpace=wrap;rounded=0;dashed=1;" parent="1" vertex="1">
          <mxGeometry x="460" y="2250" width="60" height="30" as="geometry" />
        </mxCell>
      </root>
    </mxGraphModel>
  </diagram>
  <diagram id="a9jQHX3T51yv_tkRWAzs" name="第 2 页">
    <mxGraphModel dx="798" dy="438" grid="1" gridSize="10" guides="1" tooltips="1" connect="1" arrows="1" fold="1" page="1" pageScale="1" pageWidth="827" pageHeight="1169" math="0" shadow="0">
      <root>
        <mxCell id="0" />
        <mxCell id="1" parent="0" />
        <mxCell id="wVcqkv5YcqRKDSPAroQN-7" style="edgeStyle=orthogonalEdgeStyle;rounded=0;orthogonalLoop=1;jettySize=auto;html=1;" edge="1" parent="1">
          <mxGeometry relative="1" as="geometry">
            <mxPoint x="370" y="220" as="targetPoint" />
            <mxPoint x="130" y="220" as="sourcePoint" />
          </mxGeometry>
        </mxCell>
        <mxCell id="wVcqkv5YcqRKDSPAroQN-8" value="" style="curved=1;endArrow=classic;html=1;rounded=0;edgeStyle=orthogonalEdgeStyle;" edge="1" parent="1">
          <mxGeometry width="50" height="50" relative="1" as="geometry">
            <mxPoint x="120" y="220" as="sourcePoint" />
            <mxPoint x="170" y="170" as="targetPoint" />
            <Array as="points">
              <mxPoint x="170" y="220" />
              <mxPoint x="120" y="170" />
            </Array>
          </mxGeometry>
        </mxCell>
        <mxCell id="wVcqkv5YcqRKDSPAroQN-9" value="V 7.2.10 PYN" style="text;html=1;align=center;verticalAlign=middle;resizable=0;points=[];autosize=1;strokeColor=none;fillColor=none;" vertex="1" parent="1">
          <mxGeometry x="130" y="140" width="100" height="30" as="geometry" />
        </mxCell>
        <mxCell id="wVcqkv5YcqRKDSPAroQN-12" value="V7.2.11 PWH" style="text;html=1;strokeColor=none;fillColor=none;align=center;verticalAlign=middle;whiteSpace=wrap;rounded=0;" vertex="1" parent="1">
          <mxGeometry x="110" y="260" width="80" height="30" as="geometry" />
        </mxCell>
        <mxCell id="wVcqkv5YcqRKDSPAroQN-15" style="edgeStyle=none;rounded=0;orthogonalLoop=1;jettySize=auto;html=1;" edge="1" parent="1" target="wVcqkv5YcqRKDSPAroQN-12">
          <mxGeometry relative="1" as="geometry">
            <mxPoint x="150" y="220" as="sourcePoint" />
          </mxGeometry>
        </mxCell>
        <mxCell id="wVcqkv5YcqRKDSPAroQN-16" value="PWH" style="edgeLabel;html=1;align=center;verticalAlign=middle;resizable=0;points=[];" vertex="1" connectable="0" parent="wVcqkv5YcqRKDSPAroQN-15">
          <mxGeometry x="-0.06" relative="1" as="geometry">
            <mxPoint as="offset" />
          </mxGeometry>
        </mxCell>
        <mxCell id="wVcqkv5YcqRKDSPAroQN-13" value="&lt;span style=&quot;color: rgb(0, 0, 0); font-family: Helvetica; font-size: 12px; font-style: normal; font-variant-ligatures: normal; font-variant-caps: normal; font-weight: 400; letter-spacing: normal; orphans: 2; text-align: center; text-indent: 0px; text-transform: none; widows: 2; word-spacing: 0px; -webkit-text-stroke-width: 0px; background-color: rgb(251, 251, 251); text-decoration-thickness: initial; text-decoration-style: initial; text-decoration-color: initial; float: none; display: inline !important;&quot;&gt;V 7.2.10&lt;/span&gt;" style="text;whiteSpace=wrap;html=1;" vertex="1" parent="1">
          <mxGeometry x="50" y="210" width="70" height="20" as="geometry" />
        </mxCell>
        <mxCell id="wVcqkv5YcqRKDSPAroQN-14" style="edgeStyle=none;rounded=0;orthogonalLoop=1;jettySize=auto;html=1;exitX=1;exitY=0.5;exitDx=0;exitDy=0;" edge="1" parent="1" source="wVcqkv5YcqRKDSPAroQN-13" target="wVcqkv5YcqRKDSPAroQN-13">
          <mxGeometry relative="1" as="geometry" />
        </mxCell>
        <mxCell id="wVcqkv5YcqRKDSPAroQN-17" value="" style="endArrow=classic;html=1;rounded=0;" edge="1" parent="1">
          <mxGeometry width="50" height="50" relative="1" as="geometry">
            <mxPoint x="190" y="280" as="sourcePoint" />
            <mxPoint x="230" y="320" as="targetPoint" />
            <Array as="points">
              <mxPoint x="230" y="280" />
            </Array>
          </mxGeometry>
        </mxCell>
        <mxCell id="wVcqkv5YcqRKDSPAroQN-18" value="V7.2.12 PWH" style="text;html=1;strokeColor=none;fillColor=none;align=center;verticalAlign=middle;whiteSpace=wrap;rounded=0;" vertex="1" parent="1">
          <mxGeometry x="190" y="320" width="80" height="30" as="geometry" />
        </mxCell>
        <mxCell id="wVcqkv5YcqRKDSPAroQN-19" value="V 7.2.11 PYN" style="text;html=1;align=center;verticalAlign=middle;resizable=0;points=[];autosize=1;strokeColor=none;fillColor=none;" vertex="1" parent="1">
          <mxGeometry x="230" y="100" width="100" height="30" as="geometry" />
        </mxCell>
        <mxCell id="wVcqkv5YcqRKDSPAroQN-20" value="" style="endArrow=classic;html=1;rounded=0;" edge="1" parent="1">
          <mxGeometry width="50" height="50" relative="1" as="geometry">
            <mxPoint x="230" y="160" as="sourcePoint" />
            <mxPoint x="280" y="130" as="targetPoint" />
            <Array as="points">
              <mxPoint x="280" y="160" />
            </Array>
          </mxGeometry>
        </mxCell>
        <mxCell id="wVcqkv5YcqRKDSPAroQN-22" value="" style="endArrow=classic;html=1;rounded=0;exitX=0.92;exitY=0.993;exitDx=0;exitDy=0;exitPerimeter=0;" edge="1" parent="1" source="wVcqkv5YcqRKDSPAroQN-19">
          <mxGeometry width="50" height="50" relative="1" as="geometry">
            <mxPoint x="300" y="260" as="sourcePoint" />
            <mxPoint x="360" y="210" as="targetPoint" />
          </mxGeometry>
        </mxCell>
        <mxCell id="wVcqkv5YcqRKDSPAroQN-23" value="merge" style="edgeLabel;html=1;align=center;verticalAlign=middle;resizable=0;points=[];" vertex="1" connectable="0" parent="wVcqkv5YcqRKDSPAroQN-22">
          <mxGeometry x="0.0231" y="2" relative="1" as="geometry">
            <mxPoint x="1" as="offset" />
          </mxGeometry>
        </mxCell>
        <mxCell id="wVcqkv5YcqRKDSPAroQN-24" value="" style="endArrow=classic;html=1;rounded=0;exitX=1;exitY=0.25;exitDx=0;exitDy=0;" edge="1" parent="1" source="wVcqkv5YcqRKDSPAroQN-18">
          <mxGeometry width="50" height="50" relative="1" as="geometry">
            <mxPoint x="300" y="260" as="sourcePoint" />
            <mxPoint x="360" y="220" as="targetPoint" />
          </mxGeometry>
        </mxCell>
        <mxCell id="wVcqkv5YcqRKDSPAroQN-26" value="merge" style="edgeLabel;html=1;align=center;verticalAlign=middle;resizable=0;points=[];" vertex="1" connectable="0" parent="wVcqkv5YcqRKDSPAroQN-24">
          <mxGeometry x="-0.1924" y="4" relative="1" as="geometry">
            <mxPoint y="1" as="offset" />
          </mxGeometry>
        </mxCell>
        <mxCell id="wVcqkv5YcqRKDSPAroQN-27" value="&lt;span style=&quot;color: rgb(0, 0, 0); font-family: Helvetica; font-size: 12px; font-style: normal; font-variant-ligatures: normal; font-variant-caps: normal; font-weight: 400; letter-spacing: normal; orphans: 2; text-align: center; text-indent: 0px; text-transform: none; widows: 2; word-spacing: 0px; -webkit-text-stroke-width: 0px; background-color: rgb(251, 251, 251); text-decoration-thickness: initial; text-decoration-style: initial; text-decoration-color: initial; float: none; display: inline !important;&quot;&gt;V 7.2.13&lt;/span&gt;" style="text;whiteSpace=wrap;html=1;" vertex="1" parent="1">
          <mxGeometry x="390" y="210" width="70" height="20" as="geometry" />
        </mxCell>
        <mxCell id="wVcqkv5YcqRKDSPAroQN-29" value="&lt;span style=&quot;color: rgb(0, 0, 0); font-family: Helvetica; font-size: 12px; font-style: normal; font-variant-ligatures: normal; font-variant-caps: normal; font-weight: 400; letter-spacing: normal; orphans: 2; text-align: center; text-indent: 0px; text-transform: none; widows: 2; word-spacing: 0px; -webkit-text-stroke-width: 0px; background-color: rgb(251, 251, 251); text-decoration-thickness: initial; text-decoration-style: initial; text-decoration-color: initial; float: none; display: inline !important;&quot;&gt;V 7.2.10&lt;/span&gt;" style="text;whiteSpace=wrap;html=1;" vertex="1" parent="1">
          <mxGeometry x="40" y="610" width="70" height="20" as="geometry" />
        </mxCell>
        <mxCell id="wVcqkv5YcqRKDSPAroQN-31" value="" style="curved=1;endArrow=classic;html=1;rounded=0;edgeStyle=orthogonalEdgeStyle;" edge="1" parent="1">
          <mxGeometry width="50" height="50" relative="1" as="geometry">
            <mxPoint x="110" y="620" as="sourcePoint" />
            <mxPoint x="160" y="570" as="targetPoint" />
            <Array as="points">
              <mxPoint x="160" y="620" />
              <mxPoint x="110" y="570" />
            </Array>
          </mxGeometry>
        </mxCell>
        <mxCell id="wVcqkv5YcqRKDSPAroQN-32" value="V 7.2.10 PYN" style="text;html=1;align=center;verticalAlign=middle;resizable=0;points=[];autosize=1;strokeColor=none;fillColor=none;" vertex="1" parent="1">
          <mxGeometry x="120" y="540" width="100" height="30" as="geometry" />
        </mxCell>
        <mxCell id="wVcqkv5YcqRKDSPAroQN-34" value="V7.2.11 PWH" style="text;html=1;strokeColor=none;fillColor=none;align=center;verticalAlign=middle;whiteSpace=wrap;rounded=0;" vertex="1" parent="1">
          <mxGeometry x="120" y="665" width="80" height="30" as="geometry" />
        </mxCell>
        <mxCell id="wVcqkv5YcqRKDSPAroQN-37" value="" style="endArrow=classic;html=1;rounded=0;entryX=0.37;entryY=-0.173;entryDx=0;entryDy=0;entryPerimeter=0;" edge="1" parent="1" target="wVcqkv5YcqRKDSPAroQN-34">
          <mxGeometry width="50" height="50" relative="1" as="geometry">
            <mxPoint x="150" y="620" as="sourcePoint" />
            <mxPoint x="340" y="500" as="targetPoint" />
          </mxGeometry>
        </mxCell>
        <mxCell id="wVcqkv5YcqRKDSPAroQN-38" value="PWH" style="edgeLabel;html=1;align=center;verticalAlign=middle;resizable=0;points=[];" vertex="1" connectable="0" parent="wVcqkv5YcqRKDSPAroQN-37">
          <mxGeometry x="0.0043" y="1" relative="1" as="geometry">
            <mxPoint as="offset" />
          </mxGeometry>
        </mxCell>
        <mxCell id="wVcqkv5YcqRKDSPAroQN-41" value="V 7.2.11 PYN" style="text;html=1;align=center;verticalAlign=middle;resizable=0;points=[];autosize=1;strokeColor=none;fillColor=none;" vertex="1" parent="1">
          <mxGeometry x="220" y="500" width="100" height="30" as="geometry" />
        </mxCell>
        <mxCell id="wVcqkv5YcqRKDSPAroQN-42" value="" style="endArrow=classic;html=1;rounded=0;" edge="1" parent="1">
          <mxGeometry width="50" height="50" relative="1" as="geometry">
            <mxPoint x="220" y="560" as="sourcePoint" />
            <mxPoint x="270" y="530" as="targetPoint" />
            <Array as="points">
              <mxPoint x="270" y="560" />
            </Array>
          </mxGeometry>
        </mxCell>
        <mxCell id="wVcqkv5YcqRKDSPAroQN-45" value="" style="endArrow=classic;html=1;rounded=0;" edge="1" parent="1">
          <mxGeometry width="50" height="50" relative="1" as="geometry">
            <mxPoint x="210" y="680" as="sourcePoint" />
            <mxPoint x="250" y="720" as="targetPoint" />
            <Array as="points">
              <mxPoint x="250" y="680" />
            </Array>
          </mxGeometry>
        </mxCell>
        <mxCell id="wVcqkv5YcqRKDSPAroQN-55" style="edgeStyle=none;rounded=0;orthogonalLoop=1;jettySize=auto;html=1;" edge="1" parent="1" source="wVcqkv5YcqRKDSPAroQN-46">
          <mxGeometry relative="1" as="geometry">
            <mxPoint x="650" y="630" as="targetPoint" />
            <Array as="points">
              <mxPoint x="250" y="840" />
              <mxPoint x="650" y="840" />
            </Array>
          </mxGeometry>
        </mxCell>
        <mxCell id="wVcqkv5YcqRKDSPAroQN-61" value="merge" style="edgeLabel;html=1;align=center;verticalAlign=middle;resizable=0;points=[];" vertex="1" connectable="0" parent="wVcqkv5YcqRKDSPAroQN-55">
          <mxGeometry x="0.74" y="1" relative="1" as="geometry">
            <mxPoint as="offset" />
          </mxGeometry>
        </mxCell>
        <mxCell id="wVcqkv5YcqRKDSPAroQN-46" value="V7.2.12 PWH" style="text;html=1;strokeColor=none;fillColor=none;align=center;verticalAlign=middle;whiteSpace=wrap;rounded=0;" vertex="1" parent="1">
          <mxGeometry x="210" y="720" width="80" height="30" as="geometry" />
        </mxCell>
        <mxCell id="wVcqkv5YcqRKDSPAroQN-47" value="" style="endArrow=classic;html=1;rounded=0;exitX=1;exitY=0.5;exitDx=0;exitDy=0;" edge="1" parent="1" source="wVcqkv5YcqRKDSPAroQN-29">
          <mxGeometry width="50" height="50" relative="1" as="geometry">
            <mxPoint x="300" y="660" as="sourcePoint" />
            <mxPoint x="650" y="620" as="targetPoint" />
          </mxGeometry>
        </mxCell>
        <mxCell id="wVcqkv5YcqRKDSPAroQN-59" value="merge" style="edgeLabel;html=1;align=center;verticalAlign=middle;resizable=0;points=[];" vertex="1" connectable="0" parent="wVcqkv5YcqRKDSPAroQN-47">
          <mxGeometry x="0.4933" y="-2" relative="1" as="geometry">
            <mxPoint as="offset" />
          </mxGeometry>
        </mxCell>
        <mxCell id="wVcqkv5YcqRKDSPAroQN-48" value="" style="endArrow=classic;html=1;rounded=0;" edge="1" parent="1" target="wVcqkv5YcqRKDSPAroQN-49">
          <mxGeometry width="50" height="50" relative="1" as="geometry">
            <mxPoint x="400" y="620" as="sourcePoint" />
            <mxPoint x="400" y="770" as="targetPoint" />
          </mxGeometry>
        </mxCell>
        <mxCell id="wVcqkv5YcqRKDSPAroQN-54" style="edgeStyle=none;rounded=0;orthogonalLoop=1;jettySize=auto;html=1;" edge="1" parent="1" source="wVcqkv5YcqRKDSPAroQN-49">
          <mxGeometry relative="1" as="geometry">
            <mxPoint x="640" y="630" as="targetPoint" />
          </mxGeometry>
        </mxCell>
        <mxCell id="wVcqkv5YcqRKDSPAroQN-60" value="merge" style="edgeLabel;html=1;align=center;verticalAlign=middle;resizable=0;points=[];" vertex="1" connectable="0" parent="wVcqkv5YcqRKDSPAroQN-54">
          <mxGeometry x="-0.1946" relative="1" as="geometry">
            <mxPoint as="offset" />
          </mxGeometry>
        </mxCell>
        <mxCell id="wVcqkv5YcqRKDSPAroQN-49" value="V7.2.13 QMH" style="text;html=1;strokeColor=none;fillColor=none;align=center;verticalAlign=middle;whiteSpace=wrap;rounded=0;" vertex="1" parent="1">
          <mxGeometry x="370" y="755" width="60" height="30" as="geometry" />
        </mxCell>
        <mxCell id="wVcqkv5YcqRKDSPAroQN-50" value="" style="endArrow=classic;html=1;rounded=0;" edge="1" parent="1">
          <mxGeometry width="50" height="50" relative="1" as="geometry">
            <mxPoint x="440" y="620" as="sourcePoint" />
            <mxPoint x="440" y="530" as="targetPoint" />
          </mxGeometry>
        </mxCell>
        <mxCell id="wVcqkv5YcqRKDSPAroQN-51" value="V7.2.14&amp;nbsp;&lt;br&gt;5 hospital" style="text;html=1;strokeColor=none;fillColor=none;align=center;verticalAlign=middle;whiteSpace=wrap;rounded=0;" vertex="1" parent="1">
          <mxGeometry x="414" y="500" width="60" height="30" as="geometry" />
        </mxCell>
        <mxCell id="wVcqkv5YcqRKDSPAroQN-52" value="" style="endArrow=classic;html=1;rounded=0;exitX=0.532;exitY=-0.127;exitDx=0;exitDy=0;exitPerimeter=0;" edge="1" parent="1" source="wVcqkv5YcqRKDSPAroQN-41">
          <mxGeometry width="50" height="50" relative="1" as="geometry">
            <mxPoint x="300" y="660" as="sourcePoint" />
            <mxPoint x="650" y="610" as="targetPoint" />
            <Array as="points">
              <mxPoint x="273" y="460" />
              <mxPoint x="650" y="460" />
            </Array>
          </mxGeometry>
        </mxCell>
        <mxCell id="wVcqkv5YcqRKDSPAroQN-57" value="merge" style="edgeLabel;html=1;align=center;verticalAlign=middle;resizable=0;points=[];" vertex="1" connectable="0" parent="wVcqkv5YcqRKDSPAroQN-52">
          <mxGeometry x="-0.0646" y="-2" relative="1" as="geometry">
            <mxPoint as="offset" />
          </mxGeometry>
        </mxCell>
        <mxCell id="wVcqkv5YcqRKDSPAroQN-53" value="" style="endArrow=classic;html=1;rounded=0;exitX=1;exitY=0.25;exitDx=0;exitDy=0;" edge="1" parent="1" source="wVcqkv5YcqRKDSPAroQN-51">
          <mxGeometry width="50" height="50" relative="1" as="geometry">
            <mxPoint x="300" y="660" as="sourcePoint" />
            <mxPoint x="640" y="610" as="targetPoint" />
          </mxGeometry>
        </mxCell>
        <mxCell id="wVcqkv5YcqRKDSPAroQN-58" value="merge" style="edgeLabel;html=1;align=center;verticalAlign=middle;resizable=0;points=[];" vertex="1" connectable="0" parent="wVcqkv5YcqRKDSPAroQN-53">
          <mxGeometry x="-0.2198" y="-3" relative="1" as="geometry">
            <mxPoint as="offset" />
          </mxGeometry>
        </mxCell>
        <mxCell id="wVcqkv5YcqRKDSPAroQN-56" value="&lt;span style=&quot;color: rgb(0, 0, 0); font-family: Helvetica; font-size: 12px; font-style: normal; font-variant-ligatures: normal; font-variant-caps: normal; font-weight: 400; letter-spacing: normal; orphans: 2; text-align: center; text-indent: 0px; text-transform: none; widows: 2; word-spacing: 0px; -webkit-text-stroke-width: 0px; background-color: rgb(251, 251, 251); text-decoration-thickness: initial; text-decoration-style: initial; text-decoration-color: initial; float: none; display: inline !important;&quot;&gt;V 7.3.1&lt;/span&gt;" style="text;whiteSpace=wrap;html=1;" vertex="1" parent="1">
          <mxGeometry x="670" y="610" width="80" height="40" as="geometry" />
        </mxCell>
      </root>
    </mxGraphModel>
  </diagram>
</mxfile>
